{
    "token": "NzgzNzExODkwOTExNTI2OTIy.X8eukw.9HTJfBuU25mwjSg-bZzbhzlrh-o",
    "prefix": "!",
    "clientID": "783711890911526922",
    "owner": "191243099123482625",
    "everyoneMention": true,
    "hostedBy": true,
    "tickets": {
        "roles": {
            "support": "784440076431917056",
            "supervisor": "784440357701419018"
        },
        "messages": {
            "welcome": "Ďakujeme, že si nás kontaktoval. Napíš prosím podrobnosti o tvojom probléme.\nTím podpory bude čoskoro pripravný ti pomôcť. Postupuj podľa pokynov, kým nepríde podpora."
        },
        "category": "784441042794840106"
    }
}